{
  "project_info": {
    "project_number": "189115236266",
    "firebase_url": "https://android-9c077-default-rtdb.europe-west1.firebasedatabase.app",
    "project_id": "android-9c077",
    "storage_bucket": "android-9c077.appspot.com"
  },
  "client": [
    {
      "client_info": {
        "mobilesdk_app_id": "1:189115236266:android:82e9fd5608ad9585f7b5d3",
        "android_client_info": {
          "package_name": "com.example.android2021"
        }
      },
      "oauth_client": [
        {
          "client_id": "189115236266-b5p5oe195vssim27s53u03ct951ptgt0.apps.googleusercontent.com",
          "client_type": 1,
          "android_info": {
            "package_name": "com.example.android2021",
            "certificate_hash": "fd419431c1dbddf45d3892e5d6c9b8ea6dbac2a8"
          }
        },
        {
          "client_id": "189115236266-9221dc3t5rp88p7habldtfq9id86fdo2.apps.googleusercontent.com",
          "client_type": 3
        }
      ],
      "api_key": [
        {
          "current_key": "AIzaSyAh8_2wEhDUKguMjqUgY8vL9C0FCkQvFVQ"
        }
      ],
      "services": {
        "appinvite_service": {
          "other_platform_oauth_client": [
            {
              "client_id": "189115236266-9221dc3t5rp88p7habldtfq9id86fdo2.apps.googleusercontent.com",
              "client_type": 3
            }
          ]
        }
      }
    }
  ],
  "configuration_version": "1"
}